{
  "functionnalDocumentation":
  {
    "title": "Website's Functional Documentation"
  },
  "encounteredIssues":
  {
    "title": "Encountered Issues"
  },
  "deployAndIntegrate":
  {
    "title": "Deployement and Integration of Socialbus"
  },
  "useCase":
  {
    "title": "Socialbus Use Case"
  },
  "socialbusBotsCommands":
  {
    "title": "Socialbus Bots Commands"
  }
}